<?xml version="1.0" encoding="utf-8"?>
<!-- Generator: Adobe Illustrator 21.0.0, SVG Export Plug-In . SVG Version: 6.00 Build 0)  -->
<svg version="1.1" id="Слой_1" xmlns="http://www.w3.org/2000/svg" xmlns:xlink="http://www.w3.org/1999/xlink" x="0px" y="0px"
	 viewBox="0 0 283.5 130" style="enable-background:new 0 0 283.5 130;" xml:space="preserve">
<style type="text/css">
	.st0{fill:#35499F;}
</style>
<path class="st0" d="M283.4,60c-0.1,0.6-0.2,1-0.3,1.4c-0.9,4.3-3.7,7.1-8.2,7.7c-2.9,0.4-10.1,0.5-10.1,0.5s0,8,0,11.4
	c0,0.3,0,0.7,0,1.1c-3.6,0-7,0-10.5,0c0-11.1,0-22.3,0-33.5c0.3,0,0.6,0,0.9,0c5.5,0,11-0.1,16.5,0c1.9,0,3.9,0.3,5.8,0.9
	c3.4,1.1,5.2,3.7,5.7,7.1c0.1,0.3,0.1,0.6,0.1,1C283.4,58,283.5,59.4,283.4,60z M264.8,55.1l0,7.7c0,0,4.2-0.1,5.9-0.5
	c1.5-0.3,2.4-1.8,2.3-3.4c-0.1-1.7-1-3.1-2.5-3.3C268.7,55.3,264.8,55.1,264.8,55.1z"/>
<path class="st0" d="M282.5,113.9c0,0-0.8,2-1.3,2.9c-2,3.6-5.1,5.5-9,6.1c-3.7,0.5-7.5,0.5-11.2-0.5c-5.4-1.5-9.2-6.3-9.5-11.9
	c-0.1-2.7,0-5.3,1.1-7.8c1.5-3.6,4.3-5.9,8-7c4.6-1.4,9.2-1.4,13.9-0.1c3.8,1.1,6.3,3.8,7.7,7.5c-0.8,0.2-8.6,1.7-8.6,1.7
	s-0.2-0.4-0.3-0.6c-1.1-2.3-3.4-3.5-6-3.3c-3,0.3-5,1.8-5.7,4.5c-0.6,2.5-0.6,5,0.1,7.4c0.6,2.4,2.4,3.8,4.9,4
	c3.8,0.3,5.9-1.1,7.1-4.7c0.1-0.2,0.2-0.4,0.2-0.6C276.7,112.2,282.5,113.9,282.5,113.9z"/>
<path class="st0" d="M102.2,92.9c0,0.5,0,0.7,0,1c0,4.9,0,15.8,0,15.8s-8,3.1-13.3,3.9c-0.3,0.1-0.9,0.1-0.9,0.1s-0.2,0.6-0.4,0.9
	c-1.7,4.7-5.7,15.3-5.7,15.3L68,130l-6-16.3c0,0-0.5-0.1-0.7-0.1c-5.4-1-10.6-2.6-15.6-4.9c-0.4-0.2-0.9-0.4-0.9-0.4L30,117.4
	L19.1,109l5.2-16.2c0,0-6.3-7.4-8-14.1c-0.1-0.2-0.2-0.8-0.2-0.8L0,72l0-13.8l16-6c0,0,0.2-0.5,0.3-0.7c1.7-4.9,4.2-9.3,7.5-13.4
	c0.3-0.3,0.5-0.7,0.5-0.7l-5.1-16.2L30,12.7l14.8,9.1c0,0,0.5-0.2,0.7-0.3c5.1-2.3,10.4-4,15.9-4.9c0.3-0.1,0.9-0.2,0.9-0.2
	l5.8-15.8c0,0,0.6,0,0.9,0c4,0,12.9,0,12.9,0l5.8,15.8c0,0,0.7,0.1,1.1,0.2c4.3,0.8,8.6,2,12.7,3.6c0.3,0.1,0.7,0.3,0.7,0.3
	s0,0.3,0,0.6c0,5.2,0,16.2,0,16.2s-0.4-0.2-0.5-0.3c-6.8-4.3-14.3-6.6-22.3-7.2c-11.4-0.9-22.1,1.4-31.7,7.7
	c-6.8,4.4-11.9,10.2-14.5,18c-3.3,9.6-1.8,18.7,3.9,27c5.4,7.9,13.1,13,22.2,15.7c14.7,4.4,28.8,3,42.1-4.9
	C101.7,93.2,101.8,93.1,102.2,92.9z"/>
<path class="st0" d="M77.9,48.6c1.8,6.7,5.7,20.4,5.7,20.4l5.2-20.5c0,0,9.3,0,13.8,0c0,11.2,0,22.3,0,33.5c-2.8,0-5.5,0-8.4,0
	c0-8.4,0-17.3,0-25.7c0,0-4.7,17.3-7,25.7c-2.5,0-4.9,0-7.3,0l-7.2-25.1c0,8.3,0,16.7,0,25.1c-2.9,0-5.8,0-8.6,0
	c0-11.1,0-22.3,0-33.4C68.6,48.6,73.2,48.6,77.9,48.6z"/>
<path class="st0" d="M219.5,48.5c9.4,0,18.8,0,28.3,0c0,2.3,0,4.6,0,7c-5.9,0-11.8,0-17.7,0c0,1.9,0,3.6,0,5.4c5.4,0,10.9,0,16.4,0
	c0,2.3,0,4.5,0,6.8c-5.5,0-10.9,0-16.4,0c0,2.2,0,4.4,0,6.7c6.1,0,12.2,0,18.3,0c0,2.6,0,5,0,7.5c-9.6,0-19.2,0-28.9,0
	C219.5,70.8,219.5,59.7,219.5,48.5z"/>
<path class="st0" d="M106.2,82.1L119,48.5h11.6l12.8,33.6l-11.1,0l-1.7-5.6l-12.1,0l-1.8,5.5L106.2,82.1z M120.9,69.3h7.7l-3.9-11.9
	L120.9,69.3z"/>
<polygon class="st0" points="245.8,94.6 245.8,123.2 236.4,123.2 236.4,107.3 223.9,123.2 214.4,123.2 214.4,94.6 223.9,94.6 
	223.9,110.3 236.3,94.6 "/>
<path class="st0" d="M202.1,107.9c0,0,1.6,0.5,2.3,0.7c2.4,0.9,4.1,2.5,4.5,5.2c0.4,2.7-0.5,5-2.6,6.8c-1.6,1.4-3.3,2.6-5.5,2.7
	c-0.6,0-22,0-22,0l0-28.5c0,0,12.8,0,18.7,0c2,0,4,0.2,5.9,1c3.2,1.4,4.7,4.5,3.9,7.6c-0.6,2.1-2,3.3-3.9,4.1
	C203,107.5,202.1,107.9,202.1,107.9z M188.8,116.7c0,0,5,0.1,7.3,0c1.2-0.1,2.2-0.7,2.6-1.9c0.6-1.8-0.5-3.4-2.7-3.6
	c-2.2-0.2-7.2-0.2-7.2-0.2L188.8,116.7z M188.8,105.7c0,0,3.4,0,5,0c0.7,0,1.3-0.1,2-0.3c1.1-0.3,1.7-1.2,1.8-2.4
	c0-1.2-0.6-2.2-1.8-2.4c-2.3-0.3-7-0.2-7-0.2V105.7z"/>
<path class="st0" d="M179,58.3c-2.4,0.5-9,1.9-9,1.9s-0.7-1.1-1.1-1.7c-1.5-2.3-3.7-3.1-6.3-2.8c-2.6,0.3-4.4,1.8-5.3,4.3
	c-0.9,2.5-0.9,5-0.7,7.6c0,0.7,0.2,1.3,0.3,2c0.7,4,3.8,6.1,7.8,5.3c3-0.5,4.3-2.7,5.1-5.3c0.1-0.4,0.2-0.7,0.3-1.1
	c2.9,0.9,9.1,2.7,9.1,2.7c-1.1,5.8-5,9.8-9.9,10.9c-4.4,1-8.8,0.9-13.1-0.4c-4.8-1.5-7.8-5-9.3-9.7c-1.5-4.5-1.4-9.2,0.1-13.7
	c1.4-4.4,4.4-7.5,8.7-9c5.1-1.8,10.3-1.8,15.4,0.1C175.2,50.8,177.5,54.1,179,58.3z"/>
<polygon class="st0" points="112.2,123.2 112.2,94.6 139.3,94.6 139.3,100.6 122.2,100.7 122.2,105.3 138,105.3 138,111 122.3,111 
	122.3,116.7 139.7,116.7 139.7,123.2 "/>
<polygon class="st0" points="182.3,48.5 214.5,48.5 214.5,56.7 203.6,56.8 203.6,82.1 193.1,82.1 193.1,56.7 182.3,56.7 "/>
<path class="st0" d="M145.4,123.2l0-28.6c0,0,12.2,0,17.9,0.1c1.4,0,2.9,0.2,4.2,0.6c4.6,1.4,6.1,5.1,5.7,9.1
	c-0.6,4.5-3.6,7.2-8.4,7.7c-2.5,0.2-8.6,0.3-9.1,0.3c0,3.5,0,10.9,0,10.9H145.4z M155.5,106.9c1.9-0.2,3.8-0.2,5.5-0.6
	c1.5-0.3,2.3-1.5,2.3-2.8c0-1.4-0.9-2.6-2.4-2.9c-1.8-0.3-3.6-0.3-5.4-0.4C155.5,102.5,155.5,104.5,155.5,106.9z"/>
</svg>
