<svg class="oiler-logo-svg" xmlns="http://www.w3.org/2000/svg" viewBox="0 0 621.2 247.3"><style type="text/css">.oiler-logo-svg__maslenka{fill:#FFCC04;}</style><path class="oiler-logo-svg__maslenka" d="M599.4,112.6c0,0-21.8,60.3-21.8,75.2c0,15,9.8,27.1,21.8,27.1s21.8-12.1,21.8-27.1
	S599.4,112.6,599.4,112.6z M597,81.6l20.7-27.9l-33.5-24.8l-228.5,74.4L326.4,73H251V40.7h35.3V8.5H183.5v32.3h35.3v32.3h-72.2V47.5
	L0,0v111.8L111.8,148v99.3h295L577.9,67.5L597,81.6z M111.8,111.5l-77.1-25V47.7l77.1,24.9V111.5z M391.1,212.6H146.5V107.8h165.2
	l34.1,35.3l162.5-52.9L391.1,212.6L391.1,212.6z"/><path class="oiler-logo-svg__text" d="M199.8,148.7v22.1c0,9.8-4.9,15.5-16,15.5c-11,0-16-5.7-16-15.5v-22.2c0-7.8,4.9-13.9,16.1-13.9
	C195,134.7,199.8,141,199.8,148.7L199.8,148.7z M179.6,147.8v25c0,3,2.1,4.4,4.1,4.4s4.1-1.4,4.1-4.4v-25c0-2.8-2.1-4.1-4.1-4.1
	C181.7,143.8,179.6,145,179.6,147.8z M218,185.1h-11.9v-49.3H218V185.1z M236.8,175.3h14.1v9.9h-26v-49.3h11.9V175.3L236.8,175.3z
	 M256,135.8h27.6v9.3h-15.7v9.7H282v9.3h-14.1v11.6h15.7v9.3H256V135.8L256,135.8z M300.7,185.1h-11.9v-49.3h18.7
	c7.4,0,13,4.2,13,12.4c0,7.5-2.1,10.4-6.7,12.5c3.6,1,6.2,3.6,6.2,8.8v9.4c0,3.6,1.1,4.6,2.1,4.6v1.6h-10.4c-3,0-3.6-2.6-3.6-6.4
	v-8.1c0-3.2-1-4.7-4.7-4.7h-2.6v19.2H300.7z M300.7,157h3c2.9,0,4.9-1.7,4.9-6.2c0-4.4-2-6.2-4.9-6.2h-3V157z"/></svg>
